<?xml version="1.0" encoding="UTF-8" standalone="no"?>
<svg
    xmlns:cc="http://creativecommons.org/ns#"
    xmlns:rdf="http://www.w3.org/1999/02/22-rdf-syntax-ns#"
    xmlns:svg="http://www.w3.org/2000/svg"
    xmlns="http://www.w3.org/2000/svg"
    width="311" height="311">
  <g transform="translate(0,311.00060)">
    <g transform="matrix(0.2393767,0,0,-0.2393767,0,0)">
      <path style="fill:#f0362f;fill-rule:nonzero;stroke:none"
            d="M 31.8438,726.785 L 571.234,1267.24 C 613.789,1309.88 682.93,1309.88 725.648,1267.24 L 1267.08,726.785 C 1309.8,684.168 1309.94,615.043 1267.36,572.391 L 727.961,31.9727 C 685.438,-10.6523 616.293,-10.6523 573.574,31.9727 L 32.1367,572.391 C -10.5977,615.043 -10.7305,684.168 31.8438,726.785"/>
      <path style="fill:#ffffff;fill-rule:nonzero;stroke:none"
            d="M 649.613,981.336 C 601.602,981.336 563.168,942.066 563.168,894.258 L 563.168,404.977 C 563.168,357.113 601.602,317.848 649.613,317.848 C 697.609,317.848 736.047,357.113 736.047,404.977 L 736.047,894.258 C 736.047,942.066 697.609,981.336 649.613,981.336"/>
    </g>
  </g>
</svg>
