<?xml version="1.0" encoding="UTF-8" standalone="no"?>
<svg
    xmlns:cc="http://creativecommons.org/ns#"
    xmlns:rdf="http://www.w3.org/1999/02/22-rdf-syntax-ns#"
    xmlns:svg="http://www.w3.org/2000/svg"
    xmlns="http://www.w3.org/2000/svg"
    width="315" height="220" >
  <g>
    <g transform="translate(-4.028343,-0.0896235)">
      <path style="fill:#429acd"
            d="M 11.316,99.156 100.484,9.98 c 7.035,-7.031 18.461,-7.031 25.527,0 l 89.512,89.176 c 7.055,7.035 7.086,18.438 0.051,25.48 l -89.172,89.168 c -7.039,7.031 -18.469,7.031 -25.527,0 L 11.363,124.636 C 4.305,117.594 4.285,106.191 11.316,99.156"/>
      <path style="fill:#ffffff"
            d="M 150.594,124.445 H 91.559 c -1.496,0 -2.707,1.211 -2.707,2.707 v 10.027 c 0,1.492 1.211,2.707 2.707,2.707 h 58.934 c 6.965,0 12.656,5.602 12.656,12.562 0,6.965 -5.691,12.551 -12.656,12.551 H 76.391 c -3.18,-0.027 -6.023,-1.137 -8.211,-3.004 -2.711,-2.293 -4.445,-5.746 -4.445,-9.57 l 0.004,-0.383 v -40.047 c 0,-7.004 5.625,-12.59 12.547,-12.664 h 59.051 c 1.496,0 2.707,-1.211 2.707,-2.711 V 86.598 c 0,-1.492 -1.211,-2.703 -2.707,-2.703 h -58.93 c -6.969,0 -12.668,-5.598 -12.668,-12.562 0,-6.957 5.699,-12.547 12.668,-12.547 h 74.086 c 7,0 12.586,5.617 12.656,12.539 v 40.469 c -0.071,6.999 -5.626,12.651 -12.555,12.651"/>
    </g>
    <g transform="translate(-1031.693773,-365.5316785)">
      <path style="fill:#429acd;fill-opacity:1;stroke:none"
            d="m 1221.6582,367.74204 18.223,0 -1.4417,20.63665 19.9126,0 1.4417,-20.63665 18.3034,0 -4.12,58.97335 -18.3034,0 1.6665,-23.85484 -19.9126,0 -1.6665,23.85484 -18.223,0 z"/>
      <path style="fill:#429acd;fill-opacity:1;stroke:none" 
            d="m 1291.5399,367.74204 27.073,0 c 5.3368,6e-5 9.5973,0.72415 12.7814,2.17228 3.184,1.44824 5.7542,3.52665 7.7104,6.23524 1.9563,2.70869 3.2915,5.85984 4.006,9.45344 0.7143,3.59368 0.931,7.40187 0.6499,11.42458 -0.4402,6.30231 -1.4991,11.18994 -3.1764,14.66288 -1.6776,3.47298 -3.872,6.38276 -6.5837,8.72935 -2.7118,2.3466 -5.5562,3.90876 -8.5338,4.68649 -4.0708,1.07273 -7.7288,1.60909 -10.9738,1.60909 l -27.073,0 z m 17.29,13.35549 -2.2512,32.22214 4.4652,0 c 3.8082,2e-5 6.5463,-0.42237 8.2146,-1.26716 1.668,-0.84476 3.0315,-2.31976 4.0905,-4.42501 1.0588,-2.10522 1.7531,-5.51784 2.083,-10.23787 0.4364,-6.24862 -0.2839,-10.52613 -2.1608,-12.83254 -1.8771,-2.30633 -5.1756,-3.45951 -9.8956,-3.45956 z"/>
    </g>
  </g>
</svg>
